{
  "auth": "zef:jjatria",
  "authors": [
    "José Joaquín Atria"
  ],
  "depends": {
    "runtime": {
      "requires": [
        "Pop"
      ]
    }
  },
  "description": "A Raku clone of the Pico 8 version of Celeste",
  "license": "Artistic-2.0",
  "name": "Celeste",
  "perl": "6.d",
  "provides": {
      "Celeste": "lib/Celeste.rakumod",
      "Local::Console": "lib/Local/Console.rakumod"
  },
  "resources": [
      "font.png",
      "sprites.png"
  ],
  "source-url": "",
  "tags": [
      "Game",
      "Pop"
  ],
  "version": "0.0.1"
}
